%YAML 1.1
%TAG !u! tag:unity3d.com,2011:
--- !u!74 &7400000
AnimationClip:
  m_ObjectHideFlags: 0
  m_CorrespondingSourceObject: {fileID: 0}
  m_PrefabInstance: {fileID: 0}
  m_PrefabAsset: {fileID: 0}
  m_Name: New Animation
  serializedVersion: 6
  m_Legacy: 0
  m_Compressed: 0
  m_UseHighQualityCurve: 1
  m_RotationCurves: []
  m_CompressedRotationCurves: []
  m_EulerCurves: []
  m_PositionCurves: []
  m_ScaleCurves: []
  m_FloatCurves: []
  m_PPtrCurves:
  - curve:
    - time: 0
      value: {fileID: 21300000, guid: e129374784a7ca5478e4cca95da56d4c, type: 3}
    - time: 0.041666668
      value: {fileID: 21300000, guid: e1054c3117e2d7345b82bd9ce7fd5d6c, type: 3}
    - time: 0.083333336
      value: {fileID: 21300000, guid: 9981bdc3b424f934095ac90208959ebb, type: 3}
    - time: 0.125
      value: {fileID: 21300000, guid: 9659872e2409e5548b8f3a07e5d8df18, type: 3}
    - time: 0.16666667
      value: {fileID: 21300000, guid: 540b6a115facab74db28ad26e79479e8, type: 3}
    - time: 0.20833333
      value: {fileID: 21300000, guid: 2befaba588aa7ad418c230f5f00fbf9e, type: 3}
    - time: 0.25
      value: {fileID: 21300000, guid: 284a37d2fa5f08243abcb00ce82f9b4d, type: 3}
    - time: 0.29166666
      value: {fileID: 21300000, guid: c173ccb9449c0354293693bd88965a68, type: 3}
    - time: 0.33333334
      value: {fileID: 21300000, guid: 4d4b07a84b0da2e43b46041ee5593210, type: 3}
    - time: 0.375
      value: {fileID: 21300000, guid: 42dcaf5ca4e61a645844f8e185b611bc, type: 3}
    - time: 0.41666666
      value: {fileID: 21300000, guid: 6d0cf3132fadf444c9465d1382e405cd, type: 3}
    - time: 0.45833334
      value: {fileID: 21300000, guid: f89d26546c5443246949d8062814a021, type: 3}
    - time: 0.5
      value: {fileID: 21300000, guid: 7bec902058be8bb4c9dc92813932b967, type: 3}
    - time: 0.5416667
      value: {fileID: 21300000, guid: 6a35f188f09d9394987be70f3cb6f008, type: 3}
    attribute: m_Sprite
    path: 
    classID: 212
    script: {fileID: 0}
  m_SampleRate: 24
  m_WrapMode: 0
  m_Bounds:
    m_Center: {x: 0, y: 0, z: 0}
    m_Extent: {x: 0, y: 0, z: 0}
  m_ClipBindingConstant:
    genericBindings:
    - serializedVersion: 2
      path: 0
      attribute: 0
      script: {fileID: 0}
      typeID: 212
      customType: 23
      isPPtrCurve: 1
    pptrCurveMapping:
    - {fileID: 21300000, guid: e129374784a7ca5478e4cca95da56d4c, type: 3}
    - {fileID: 21300000, guid: e1054c3117e2d7345b82bd9ce7fd5d6c, type: 3}
    - {fileID: 21300000, guid: 9981bdc3b424f934095ac90208959ebb, type: 3}
    - {fileID: 21300000, guid: 9659872e2409e5548b8f3a07e5d8df18, type: 3}
    - {fileID: 21300000, guid: 540b6a115facab74db28ad26e79479e8, type: 3}
    - {fileID: 21300000, guid: 2befaba588aa7ad418c230f5f00fbf9e, type: 3}
    - {fileID: 21300000, guid: 284a37d2fa5f08243abcb00ce82f9b4d, type: 3}
    - {fileID: 21300000, guid: c173ccb9449c0354293693bd88965a68, type: 3}
    - {fileID: 21300000, guid: 4d4b07a84b0da2e43b46041ee5593210, type: 3}
    - {fileID: 21300000, guid: 42dcaf5ca4e61a645844f8e185b611bc, type: 3}
    - {fileID: 21300000, guid: 6d0cf3132fadf444c9465d1382e405cd, type: 3}
    - {fileID: 21300000, guid: f89d26546c5443246949d8062814a021, type: 3}
    - {fileID: 21300000, guid: 7bec902058be8bb4c9dc92813932b967, type: 3}
    - {fileID: 21300000, guid: 6a35f188f09d9394987be70f3cb6f008, type: 3}
  m_AnimationClipSettings:
    serializedVersion: 2
    m_AdditiveReferencePoseClip: {fileID: 0}
    m_AdditiveReferencePoseTime: 0
    m_StartTime: 0
    m_StopTime: 0.5833334
    m_OrientationOffsetY: 0
    m_Level: 0
    m_CycleOffset: 0
    m_HasAdditiveReferencePose: 0
    m_LoopTime: 1
    m_LoopBlend: 0
    m_LoopBlendOrientation: 0
    m_LoopBlendPositionY: 0
    m_LoopBlendPositionXZ: 0
    m_KeepOriginalOrientation: 0
    m_KeepOriginalPositionY: 1
    m_KeepOriginalPositionXZ: 0
    m_HeightFromFeet: 0
    m_Mirror: 0
  m_EditorCurves: []
  m_EulerEditorCurves: []
  m_HasGenericRootTransform: 0
  m_HasMotionFloatCurves: 0
  m_Events: []
