%YAML 1.1
%TAG !u! tag:unity3d.com,2011:
--- !u!74 &7400000
AnimationClip:
  m_ObjectHideFlags: 0
  m_CorrespondingSourceObject: {fileID: 0}
  m_PrefabInstance: {fileID: 0}
  m_PrefabAsset: {fileID: 0}
  m_Name: New Animation
  serializedVersion: 6
  m_Legacy: 0
  m_Compressed: 0
  m_UseHighQualityCurve: 1
  m_RotationCurves: []
  m_CompressedRotationCurves: []
  m_EulerCurves: []
  m_PositionCurves: []
  m_ScaleCurves: []
  m_FloatCurves: []
  m_PPtrCurves:
  - curve:
    - time: 0
      value: {fileID: 21300000, guid: 5a7b20910612aaa4490e2352e3e9ad77, type: 3}
    - time: 0.041666668
      value: {fileID: 21300000, guid: 88a8aca540c7709458136f8132a858d6, type: 3}
    - time: 0.083333336
      value: {fileID: 21300000, guid: 162c60f11c31f6f4780d0afa36336a29, type: 3}
    - time: 0.125
      value: {fileID: 21300000, guid: 54d56f51dd757ce47acd249a29c53161, type: 3}
    - time: 0.16666667
      value: {fileID: 21300000, guid: 206eafa34ac81614c9b7ebcd742dcd8a, type: 3}
    - time: 0.20833333
      value: {fileID: 21300000, guid: bf1f03bc30a7c4e4e9bbf53385828034, type: 3}
    - time: 0.25
      value: {fileID: 21300000, guid: 913ea30e92932db4695bbb39a3596f27, type: 3}
    - time: 0.29166666
      value: {fileID: 21300000, guid: b32e8614d41642e459a59accdd3cde95, type: 3}
    - time: 0.33333334
      value: {fileID: 21300000, guid: c01f620bfb5367e4cbfa2acaf10ecd59, type: 3}
    - time: 0.375
      value: {fileID: 21300000, guid: c33bb611d61d4ca42bd9e1a3aca9b509, type: 3}
    - time: 0.41666666
      value: {fileID: 21300000, guid: 7fabe17dba7a03c48b8abb774532990a, type: 3}
    - time: 0.45833334
      value: {fileID: 21300000, guid: 6e724ddcc378e7b4fad7a30da9881170, type: 3}
    - time: 0.5
      value: {fileID: 21300000, guid: 317e34d9ac579734a803df4f0a03b146, type: 3}
    - time: 0.5416667
      value: {fileID: 21300000, guid: 7d9e175b2fb7fc14582961e2a0b8696b, type: 3}
    attribute: m_Sprite
    path: 
    classID: 212
    script: {fileID: 0}
  m_SampleRate: 24
  m_WrapMode: 0
  m_Bounds:
    m_Center: {x: 0, y: 0, z: 0}
    m_Extent: {x: 0, y: 0, z: 0}
  m_ClipBindingConstant:
    genericBindings:
    - serializedVersion: 2
      path: 0
      attribute: 0
      script: {fileID: 0}
      typeID: 212
      customType: 23
      isPPtrCurve: 1
    pptrCurveMapping:
    - {fileID: 21300000, guid: 5a7b20910612aaa4490e2352e3e9ad77, type: 3}
    - {fileID: 21300000, guid: 88a8aca540c7709458136f8132a858d6, type: 3}
    - {fileID: 21300000, guid: 162c60f11c31f6f4780d0afa36336a29, type: 3}
    - {fileID: 21300000, guid: 54d56f51dd757ce47acd249a29c53161, type: 3}
    - {fileID: 21300000, guid: 206eafa34ac81614c9b7ebcd742dcd8a, type: 3}
    - {fileID: 21300000, guid: bf1f03bc30a7c4e4e9bbf53385828034, type: 3}
    - {fileID: 21300000, guid: 913ea30e92932db4695bbb39a3596f27, type: 3}
    - {fileID: 21300000, guid: b32e8614d41642e459a59accdd3cde95, type: 3}
    - {fileID: 21300000, guid: c01f620bfb5367e4cbfa2acaf10ecd59, type: 3}
    - {fileID: 21300000, guid: c33bb611d61d4ca42bd9e1a3aca9b509, type: 3}
    - {fileID: 21300000, guid: 7fabe17dba7a03c48b8abb774532990a, type: 3}
    - {fileID: 21300000, guid: 6e724ddcc378e7b4fad7a30da9881170, type: 3}
    - {fileID: 21300000, guid: 317e34d9ac579734a803df4f0a03b146, type: 3}
    - {fileID: 21300000, guid: 7d9e175b2fb7fc14582961e2a0b8696b, type: 3}
  m_AnimationClipSettings:
    serializedVersion: 2
    m_AdditiveReferencePoseClip: {fileID: 0}
    m_AdditiveReferencePoseTime: 0
    m_StartTime: 0
    m_StopTime: 0.5833334
    m_OrientationOffsetY: 0
    m_Level: 0
    m_CycleOffset: 0
    m_HasAdditiveReferencePose: 0
    m_LoopTime: 1
    m_LoopBlend: 0
    m_LoopBlendOrientation: 0
    m_LoopBlendPositionY: 0
    m_LoopBlendPositionXZ: 0
    m_KeepOriginalOrientation: 0
    m_KeepOriginalPositionY: 1
    m_KeepOriginalPositionXZ: 0
    m_HeightFromFeet: 0
    m_Mirror: 0
  m_EditorCurves: []
  m_EulerEditorCurves: []
  m_HasGenericRootTransform: 0
  m_HasMotionFloatCurves: 0
  m_Events: []
